Cleaning US. Census Data
…
us_census

## # A tibble: 52 x 11
##    State TotalPop Hispanic White  Black  Native  Asian Pacific Income male_pop
##    <chr>    <dbl>    <dbl> <dbl>  <dbl>   <dbl>  <dbl>   <dbl>  <dbl>    <dbl>
##  1 Alab  4830620   0.0375 0.619 0.313  0.00453 0.0105 3.44e-4 43296.  2341093
##  2 Alas   733375   0.0591 0.609 0.0285 0.164   0.0545 1.06e-2 70355.   384160
##  3 Ariz  6641928   0.296  0.571 0.0385 0.0436  0.0288 1.68e-3 54208.  3299088
##  4 Arka  2958208   0.0622 0.711 0.190  0.00523 0.0114 1.47e-3 41936.  1451913
##  5 Cali 38421464   0.373  0.402 0.0568 0.00405 0.131  3.51e-3 67265. 19087135
##  6 Colo  5278906   0.208  0.699 0.0355 0.00574 0.0266 1.20e-3 64658.  2648667
##  7 Conn  3593222   0.156  0.677 0.103  0.00126 0.0402 1.86e-4 76147.  1751607
##  8 Dela   926454   0.0882 0.646 0.207  0.00260 0.0327 1.92e-4 61828.   448413
##  9 Dist   647484   0.0917 0.331 0.518  0.00201 0.0338 2.96e-4 75466.   306674
## 10 Flor 19645772   0.213  0.591 0.152  0.00210 0.0228 5.15e-4 50690.  9600009
## #  with 42 more rows, and 1 more variable: female_pop <dbl>
…
